<?xml version="1.0" encoding="UTF-8"?>
<svg width="25px" height="16px" viewBox="0 0 25 16" version="1.1" xmlns="http://www.w3.org/2000/svg" xmlns:xlink="http://www.w3.org/1999/xlink">
    <!-- Generator: Sketch 50.2 (55047) - http://www.bohemiancoding.com/sketch -->
    <title>Group 2</title>
    <desc>Created with Sketch.</desc>
    <defs></defs>
    <g id="Symbols" stroke="none" stroke-width="1" fill="none" fill-rule="evenodd">
        <g id="icons/email" transform="translate(6.000000, 2.000000)">
            <g id="Group-2" transform="translate(-6.000000, -8.000000)">
                <rect id="Rectangle-5-Copy-14" fill="#FFFFFF" x="0" y="6" width="25" height="16" rx="2"></rect>
                <polyline id="Rectangle" stroke="#9AA3E2" stroke-width="2" stroke-linecap="round" stroke-linejoin="round" transform="translate(12.502386, 9.192388) rotate(135.000000) translate(-12.502386, -9.192388) " points="6.00238571 2.69238816 16.3829999 5.9491532 19.0023857 15.6923882"></polyline>
            </g>
        </g>
    </g>
</svg>