<svg xmlns="http://www.w3.org/2000/svg" width="21" height="17" viewBox="0 0 21 17">
    <g fill="none" fill-rule="evenodd" stroke="#3647C6" stroke-linecap="round" stroke-width="2">
        <path d="M1 1.5h19M1 8.5h19M1 15.5h19"/>
    </g>
</svg>
